module gitlab.com/samandar_tukhtayev/rest

go 1.20

require (
	github.com/Masterminds/squirrel v1.5.4
	github.com/gin-contrib/cors v1.5.0
	github.com/gin-gonic/gin v1.9.1
	github.com/golanguzb70/middleware v1.1.0
	github.com/jmoiron/sqlx v1.3.5
	github.com/joho/godotenv v1.5.1
	github.com/lib/pq v1.10.9
	github.com/rs/zerolog v1.31.0
	github.com/spf13/cast v1.6.0
	github.com/swaggo/files v1.0.1
	github.com/swaggo/gin-swagger v1.6.0
	github.com/swaggo/swag v1.16.2
	go.uber.org/fx v1.20.1
	golang.org/x/crypto v0.18.0
	google.golang.org/grpc v1.61.0
)

require (
	github.com/KyleBanks/depth v1.2.1 // indirect
	github.com/PuerkitoBio/purell v1.1.1 // indirect
	github.com/PuerkitoBio/urlesc v0.0.0-20170810143723-de5bf2ad4578 // indirect
	github.com/bytedance/sonic v1.10.1 // indirect
	github.com/chenzhuoyu/base64x v0.0.0-20230717121745-296ad89f973d // indirect
	github.com/chenzhuoyu/iasm v0.9.0 // indirect
	github.com/gabriel-vasile/mimetype v1.4.2 // indirect
	github.com/gin-contrib/sse v0.1.0 // indirect
	github.com/go-openapi/jsonpointer v0.19.5 // indirect
	github.com/go-openapi/jsonreference v0.19.6 // indirect
	github.com/go-openapi/spec v0.20.4 // indirect
	github.com/go-openapi/swag v0.19.15 // indirect
	github.com/go-playground/locales v0.14.1 // indirect
	github.com/go-playground/universal-translator v0.18.1 // indirect
	github.com/go-playground/validator/v10 v10.15.5 // indirect
	github.com/goccy/go-json v0.10.2 // indirect
	github.com/golang/protobuf v1.5.3 // indirect
	github.com/josharian/intern v1.0.0 // indirect
	github.com/json-iterator/go v1.1.12 // indirect
	github.com/klauspost/cpuid/v2 v2.2.5 // indirect
	github.com/lann/builder v0.0.0-20180802200727-47ae307949d0 // indirect
	github.com/lann/ps v0.0.0-20150810152359-62de8c46ede0 // indirect
	github.com/leodido/go-urn v1.2.4 // indirect
	github.com/mailru/easyjson v0.7.6 // indirect
	github.com/mattn/go-colorable v0.1.13 // indirect
	github.com/mattn/go-isatty v0.0.19 // indirect
	github.com/modern-go/concurrent v0.0.0-20180306012644-bacd9c7ef1dd // indirect
	github.com/modern-go/reflect2 v1.0.2 // indirect
	github.com/pelletier/go-toml/v2 v2.1.0 // indirect
	github.com/twitchyliquid64/golang-asm v0.15.1 // indirect
	github.com/ugorji/go/codec v1.2.11 // indirect
	go.uber.org/atomic v1.7.0 // indirect
	go.uber.org/dig v1.17.0 // indirect
	go.uber.org/multierr v1.6.0 // indirect
	go.uber.org/zap v1.23.0 // indirect
	golang.org/x/arch v0.5.0 // indirect
	golang.org/x/net v0.18.0 // indirect
	golang.org/x/sys v0.16.0 // indirect
	golang.org/x/text v0.14.0 // indirect
	golang.org/x/tools v0.7.0 // indirect
	google.golang.org/genproto/googleapis/rpc v0.0.0-20231106174013-bbf56f31fb17 // indirect
	google.golang.org/protobuf v1.31.0 // indirect
	gopkg.in/yaml.v2 v2.4.0 // indirect
	gopkg.in/yaml.v3 v3.0.1 // indirect
)
